<?xml version="1.0" encoding="UTF-8"?>
<svg width="500px" height="500px" viewBox="0 0 500 500" version="1.1" xmlns="http://www.w3.org/2000/svg" xmlns:xlink="http://www.w3.org/1999/xlink">
    <!-- Generator: Sketch 51.3 (57544) - http://www.bohemiancoding.com/sketch -->
    <title>thunderstorms</title>
    <desc>Created with Sketch.</desc>
    <defs></defs>
    <g id="thunderstorms" stroke="none" stroke-width="1" fill="none" fill-rule="evenodd">
        <rect id="Rectangle-2" fill="#AEEBF8" transform="translate(123.769531, 396.652344) rotate(-330.000000) translate(-123.769531, -396.652344) " x="108.769531" y="331.652344" width="30" height="130" rx="15"></rect>
        <rect id="Rectangle-2" fill="#AEEBF8" transform="translate(345.490381, 363.791651) rotate(-330.000000) translate(-345.490381, -363.791651) " x="330.490381" y="298.791651" width="30" height="130" rx="15"></rect>
        <path d="M189,379.997424 C84.5259903,379.459033 0,294.600568 0,190 C0,85.0658975 85.0658975,0 190,0 C273.99887,0 345.266456,54.5091074 370.35996,130.084525 C371.899695,130.028338 373.446538,130 375,130 C444.035594,130 500,185.964406 500,255 C500,324.035594 444.035594,380 375,380 L189,380 Z" id="Combined-Shape" fill="#FFFFFF"></path>
        <polygon id="Path-2" fill="#FFF496" points="226.3125 304 322.066406 304 242.533203 391.509766 287.527344 391.509766 163 500.689453 208 409.888672 175.285156 409.888672"></polygon>
    </g>
</svg>